name="More Trait Techs (2)"
tags={
	"Balance"
	"Technologies"
	"Gameplay"
}
picture="moretraittechs.png"
supported_version="2.7.*"
path="C:/Users/Alexa/Documents/Paradox Interactive/Stellaris/mod/moretraittechs"
remote_file_id="698815285"